<?xml version="1.0" encoding="UTF-8"?>
<svg width="17px" height="17px" viewBox="0 0 17 17" version="1.1" xmlns="http://www.w3.org/2000/svg" xmlns:xlink="http://www.w3.org/1999/xlink">
    <title>F992DE28-12B0-45B1-8A10-04949F89635A</title>
    <g id="Design" stroke="none" stroke-width="1" fill="none" fill-rule="evenodd">
        <g id="03---Fam---Sign-In" transform="translate(-77.000000, -629.000000)" fill-rule="nonzero">
            <g id="Group-2" transform="translate(24.000000, 615.000000)">
                <g id="Group-4" transform="translate(53.500000, 14.500000)">
                    <path d="M3.75,8 C3.75,7.207 3.9684,6.465 4.3478,5.829 L4.3478,3.132 L1.6507,3.132 C0.5803,4.522 1.59117164e-12,6.216 1.59117164e-12,8 C1.59117164e-12,9.784 0.5803,11.478 1.6507,12.868 L4.3478,12.868 L4.3478,10.171 C3.9684,9.535 3.75,8.793 3.75,8 Z" id="Path" fill="#FBBD00"></path>
                    <path d="M8,12.25 L6.125,14.125 L8,16 C9.7837,16 11.478,15.42 12.8683,14.349 L12.8683,11.655 L10.174,11.655 C9.5326,12.036 8.7869,12.25 8,12.25 Z" id="Path" fill="#0F9D58"></path>
                    <path d="M4.3478,10.171 L1.6507,12.868 C1.8626,13.144 2.0934,13.407 2.3431,13.657 C3.8541,15.168 5.8631,16 8,16 L8,12.25 C6.4492,12.25 5.0901,11.415 4.3478,10.171 Z" id="Path" fill="#31AA52"></path>
                    <path d="M16,8 C16,7.513 15.9559,7.026 15.869,6.551 L15.7987,6.166 L8,6.166 L8,9.916 L11.7954,9.916 C11.4268,10.65 10.8601,11.248 10.174,11.655 L12.8682,14.349 C13.1435,14.137 13.4071,13.907 13.6568,13.657 C15.1678,12.146 16,10.137 16,8 Z" id="Path" fill="#3C79E6"></path>
                    <path d="M11.0052,4.995 L11.3367,5.326 L13.9883,2.675 L13.6569,2.343 C12.1459,0.832 10.1369,4.54747351e-13 8,4.54747351e-13 L6.125,1.875 L8,3.75 C9.1352,3.75 10.2025,4.192 11.0052,4.995 Z" id="Path" fill="#CF2D48"></path>
                    <path d="M7.9999,3.75 L7.9999,7.95807864e-13 C5.8631,7.95807864e-13 3.8541,0.832 2.3431,2.343 C2.0934,2.593 1.8626,2.856 1.6506,3.132 L4.3478,5.829 C5.09,4.585 6.4492,3.75 7.9999,3.75 Z" id="Path" fill="#EB4132"></path>
                </g>
            </g>
        </g>
    </g>
</svg>