<?xml version="1.0" encoding="UTF-8"?>
<svg width="24px" height="24px" viewBox="0 0 24 24" version="1.1" xmlns="http://www.w3.org/2000/svg" xmlns:xlink="http://www.w3.org/1999/xlink">
    <title>2E330133-C652-417C-AB5D-4BCE02E92D5F</title>
    <g id="Design" stroke="none" stroke-width="1" fill="none" fill-rule="evenodd">
        <g id="47---Fam---Profile---Main-screen" transform="translate(-24.000000, -321.000000)" fill="#C4C3C3" fill-rule="nonzero">
            <g id="Icon-/Friends" transform="translate(24.000000, 321.000000)">
                <path d="M14.7286364,12 C16.7387318,12 18.3668182,10.3719136 18.3668182,8.36181818 C18.3668182,6.35172273 16.7387318,4.72363636 14.7286364,4.72363636 C12.7185409,4.72363636 11.0904545,6.35172273 11.0904545,8.36181818 C11.0904545,10.3719136 12.7185409,12 14.7286364,12 Z M14.7286364,6.54272727 C15.7291364,6.54272727 16.5477273,7.36131818 16.5477273,8.36181818 C16.5477273,9.36231818 15.7291364,10.1809091 14.7286364,10.1809091 C13.7281364,10.1809091 12.9095455,9.36231818 12.9095455,8.36181818 C12.9095455,7.36131818 13.7281364,6.54272727 14.7286364,6.54272727 Z M7.45227273,17.4572727 C7.45227273,15.0378818 12.30015,13.8190909 14.7286364,13.8190909 C17.1571227,13.8190909 22.005,15.0378818 22.005,17.4572727 L22.005,19.2763636 L7.45227273,19.2763636 L7.45227273,17.4572727 Z M9.27136364,17.4572727 C9.47146364,16.8024 12.2819591,15.6381818 14.7286364,15.6381818 C17.1844091,15.6381818 20.004,16.8114955 20.1859091,17.4572727 L9.27136364,17.4572727 Z M6.54272727,12 L6.54272727,14.7286364 L4.72363636,14.7286364 L4.72363636,12 L1.995,12 L1.995,10.1809091 L4.72363636,10.1809091 L4.72363636,7.45227273 L6.54272727,7.45227273 L6.54272727,10.1809091 L9.27136364,10.1809091 L9.27136364,12 L6.54272727,12 Z"></path>
            </g>
        </g>
    </g>
</svg>