<?xml version="1.0" encoding="UTF-8"?>
<svg width="24px" height="24px" viewBox="0 0 24 24" version="1.1" xmlns="http://www.w3.org/2000/svg" xmlns:xlink="http://www.w3.org/1999/xlink">
    <title>04C3F15D-7BD5-48A0-AC1A-DE4ACBF98BAC</title>
    <g id="Design" stroke="none" stroke-width="1" fill="none" fill-rule="evenodd">
        <g id="47---Fam---Profile---Main-screen" transform="translate(-24.000000, -242.000000)" fill="#C4C3C3" fill-rule="nonzero">
            <g id="Icon-/money" transform="translate(24.000000, 242.000000)">
                <path d="M20.004,3.996 L3.996,3.996 C2.885445,3.996 2.005005,4.886445 2.005005,5.997 L1.995,18.003 C1.995,19.113555 2.885445,20.004 3.996,20.004 L20.004,20.004 C21.114555,20.004 22.005,19.113555 22.005,18.003 L22.005,5.997 C22.005,4.886445 21.114555,3.996 20.004,3.996 Z M20.00401,17.0025 C20.00401,17.552775 19.553775,18.003 19.00351,18.003 L4.99651,18.003 C4.446235,18.003 3.99601,17.552775 3.99601,17.0025 L3.99601,6.99752001 C3.99601,6.44724501 4.446235,5.99702001 4.99651,5.99702001 L19.00351,5.99702001 C19.553775,5.99702001 20.00401,6.44724501 20.00401,6.99752001 L20.00401,17.0025 Z M15.00149,8.99847999 C15.00149,9.54875499 14.551275,9.99897999 14.00099,9.99897999 L10.99949,9.99897999 L10.99949,10.9995 L14.00099,10.9995 C14.551275,10.9995 15.00149,11.449725 15.00149,12 L15.00149,15.0015 C15.00149,15.551775 14.551275,16.002 14.00099,16.002 L13.00049,16.002 C13.00049,16.552275 12.550275,17.0025 11.99999,17.0025 C11.449725,17.0025 10.99949,16.552275 10.99949,16.002 L9.99898999,16.002 C9.44871499,16.002 8.99848999,15.551775 8.99848999,15.0015 C8.99848999,14.451225 9.44871499,14.001 9.99898999,14.001 L13.00049,14.001 L13.00049,13.0005 L9.99898999,13.0005 C9.44871499,13.0005 8.99848999,12.550275 8.99848999,12 L8.99848999,8.99847999 C8.99848999,8.44820499 9.44871499,7.99797999 9.99898999,7.99797999 L10.99949,7.99797999 L10.99949,7.98797499 C10.99949,7.43769999 11.449725,6.98747499 11.99999,6.98747499 C12.550275,6.98747499 13.00049,7.43769999 13.00049,7.98797499 L13.00049,7.99797999 L14.00099,7.99797999 C14.551275,7.99797999 15.00149,8.44820499 15.00149,8.99847999 Z"></path>
            </g>
        </g>
    </g>
</svg>