<?xml version="1.0" encoding="UTF-8"?>
<svg width="160px" height="116px" viewBox="0 0 160 116" version="1.1" xmlns="http://www.w3.org/2000/svg" xmlns:xlink="http://www.w3.org/1999/xlink">
    <title>A6310FA0-7D6C-4E0C-B6F9-4CD291BB514F</title>
    <g id="Design" stroke="none" stroke-width="1" fill="none" fill-rule="evenodd">
        <g id="06---Fam---Sign-Up-#2-Copy" transform="translate(-108.000000, -225.000000)">
            <g id="Group-3" transform="translate(108.000000, 228.000000)">
                <g id="OBJECT" transform="translate(15.200000, 13.600000)">
                    <path d="M66.1543243,11.20912 C36.1012432,11.20912 11.7397482,36.6928 11.7397482,68.12784 C11.7181247,77.4132112 13.8980551,86.571527 18.100955,94.85184 L114.204973,94.85184 C118.408815,86.5717597 120.589681,77.4134321 120.568888,68.12784 C120.568888,36.6928 96.2046847,11.20912 66.1543243,11.20912 Z" id="Path" fill="#F6F6F6" fill-rule="nonzero"></path>
                    <g id="Group" style="mix-blend-mode: multiply;" transform="translate(13.059459, 11.152000)" fill-rule="nonzero">
                        <path d="M101.754955,47.00432 C102.361015,47.705208 103.238845,48.11231 104.165514,48.12224 C105.051867,48.142538 105.921117,47.8763946 106.64409,47.36336 C105.896384,47.7710541 105.042667,47.9427007 104.195441,47.85568 C103.372255,47.7892212 102.613129,47.3856423 102.097766,46.74048 C102.000072,46.6059614 101.914489,46.4630563 101.842018,46.31344 C102.524693,46.1661742 103.137436,45.7922988 103.580559,45.25264 C103.894446,44.8675925 104.071495,44.3892092 104.083892,43.89264 C104.088531,43.6228065 104.012764,43.3576938 103.866234,43.13104 C103.706132,42.8954183 103.463396,42.7284599 103.186054,42.6632 C102.923321,42.600638 102.647984,42.6167187 102.394324,42.70944 C102.154813,42.7972512 101.937489,42.936525 101.757676,43.11744 C101.412987,43.4600815 101.178103,43.8975314 101.082937,44.37408 C100.980194,44.901478 101.018676,45.4466537 101.194486,45.9544 L101.110144,45.9544 C100.271612,45.9738951 99.4394195,45.804712 98.6750991,45.45936 C97.880687,45.1336502 97.1360716,44.6978039 96.4631532,44.16464 C97.0777974,44.7844856 97.7866995,45.3031691 98.5635495,45.70144 C99.3510762,46.1292925 100.230299,46.360704 101.126468,46.376 C101.205369,46.376 101.286991,46.376 101.365892,46.376 C101.472697,46.5987654 101.603134,46.8094141 101.754955,47.00432 L101.754955,47.00432 Z M101.575387,44.49376 C101.656504,44.118605 101.845658,43.7753808 102.119532,43.5064 C102.354659,43.2502077 102.705666,43.1339226 103.047297,43.19904 C103.365104,43.2773858 103.576436,43.5780476 103.542468,43.90352 C103.530953,44.2805894 103.398356,44.6439425 103.164288,44.93984 C102.923537,45.2506756 102.61447,45.5019589 102.261009,45.67424 C102.067084,45.767464 101.863667,45.8395072 101.654288,45.88912 C101.498819,45.4404388 101.47057,44.9574995 101.572667,44.49376 L101.575387,44.49376 Z" id="Shape" fill="#A1AAAD"></path>
                        <polygon id="Path" fill="#EFEFEF" points="27.0902162 55.828 2.0487027 56.1544 10.0503423 59.96512 7.32962162 66.11504 12.2051532 63.84384 10.9753874 62.03232 16.8548649 70.68736"></polygon>
                        <path d="M4.55176577,68.01632 C3.86436813,68.5058129 3.13616325,68.9353399 2.37518919,69.30016 C1.65901195,69.6420255 0.894705288,69.8722658 0.108828829,69.98288 C0.141477477,70.1216 0.171405405,70.25488 0.204054054,70.39632 C1.01392994,70.2530352 1.79619167,69.9831714 2.52210811,69.59664 C2.90225627,69.3943619 3.27184665,69.1728479 3.62944144,68.93296 C3.98313514,68.69088 4.32322523,68.43248 4.65787387,68.16592 C5.32172973,67.62192 5.95293694,67.0616 6.56237838,66.4768 C5.90668468,66.99904 5.24282883,67.52944 4.55176577,68.01632 Z" id="Path" fill="#CBCFD1"></path>
                        <path d="M78.9009009,77.77568 L78.9009009,32.89568 L79.7606486,32.58832 L79.7606486,22.54064 L78.9009009,22.23328 L78.9009009,20.31024 L79.7606486,20.00288 L79.7606486,14.688 L78.9009009,14.38064 L78.9009009,13.29264 L79.7606486,12.98528 L79.7606486,7.684 L78.9009009,7.37664 L78.9009009,6.84896 C63.7395173,-1.73178803 45.3017419,-2.20999502 29.7157117,5.57328 L29.7157117,19.82064 L22.6826486,19.82064 C22.0553849,18.2811611 20.8029779,17.0809165 19.2379631,16.5194248 C17.6729483,15.9579331 15.9429464,16.0881573 14.4796757,16.8776 C13.5528168,17.8531733 12.6613273,18.8622933 11.8052072,19.90496 C11.2017617,21.4386024 11.2742628,23.1557054 12.0048412,24.6330512 C12.7354196,26.110397 14.0561188,27.2105669 15.6414234,27.6624 L15.6414234,41.004 C15.6414234,42.282301 16.1493611,43.5082462 17.0534959,44.4121415 C17.9576308,45.3160369 19.1839008,45.82384 20.4625405,45.82384 L29.712991,45.82384 L29.712991,77.77568 C29.7537309,80.135602 30.9154775,82.3352661 32.8418198,83.69984 L75.636036,83.69984 C77.654698,82.4025717 78.8824886,80.1747222 78.9009009,77.77568 Z" id="Path" fill="#EFEFEF"></path>
                        <polygon id="Path" fill="#F3F3F3" points="82.2909189 36.78256 89.3675135 47.056 92.5806847 42.32592 95.9543784 43.89536 94.0716396 39.644 99.6055856 37.00832"></polygon>
                    </g>
                    <line x1="118.832919" y1="94.85184" x2="13.4757297" y2="94.85184" id="Path" stroke="#F1F1F1" stroke-width="1.656" stroke-linecap="round" stroke-linejoin="round"></line>
                    <path d="M91.1767928,22.51888 L91.1767928,17.204 L90.3279279,16.89664 L90.3279279,14.84032 C90.3219318,11.0306259 87.2334444,7.94417316 83.4227387,7.93968 L48.0533694,7.93968 C44.2420434,7.94267759 41.1526806,11.0300051 41.1481802,14.84032 L41.1481802,87.29568 C41.1481802,90.85616 43.9777297,94.05488 47.5908468,94.57984 C47.6624374,94.5829458 47.7341932,94.5829458 47.8057838,94.57984 L83.1751532,94.57984 C83.2358453,94.583981 83.2967493,94.583981 83.3574414,94.57984 C87.394991,94.0848 90.3279279,91.02208 90.3279279,87.29296 L90.3279279,42.41296 L91.1876757,42.1056 L91.1876757,32.06064 L90.3279279,31.75328 L90.3279279,29.83024 L91.1876757,29.52288 L91.1876757,24.208 L90.3279279,23.90064 L90.3279279,22.81264 L91.1767928,22.51888 Z" id="Path" fill="#BF3041" fill-rule="nonzero"></path>
                    <path d="M47.7894595,93.09472 C45.0551351,92.70032 42.6200901,90.2768 42.6200901,87.29568 L42.6200901,14.84032 C42.6230895,11.8566627 45.0417143,9.43867865 48.0261622,9.43568 L83.3955315,9.43568 C86.3793589,9.44017366 88.7971088,11.8572831 88.8016036,14.84032 L88.8016036,87.29568 C88.8016036,90.28768 86.3747207,92.70032 83.1479459,93.09472 L47.7894595,93.09472 Z" id="Path" fill="#DC3B50" fill-rule="nonzero"></path>
                    <path d="M83.4118559,11.5518118 L77.243982,11.5518118 C77.243982,11.5518118 75.2034414,14.4296 74.2049369,14.4296 L58.1526847,14.4296 C57.1541802,14.4296 55.1136396,11.5518118 55.1136396,11.5518118 L48.0397658,11.5518118 C47.1669042,11.5518118 46.3295457,11.8972634 45.7120841,12.5140513 C45.0946225,13.1308392 44.7476937,13.9676894 44.7476937,14.84032 L44.7476937,80.39232 C44.7476937,82.7402813 46.6515967,84.64368 49.0001802,84.64368 L82.465045,84.64368 C83.5926246,84.64368 84.6739816,84.1956836 85.4710456,83.3983206 C86.2681095,82.6009577 86.7155327,81.5196006 86.7148117,80.39232 L86.7148117,14.84032 C86.7148117,13.9657994 86.3663959,13.127294 85.7465775,12.5101919 C85.1267591,11.8930899 84.2866007,11.5482233 83.4118559,11.5518118 Z" id="Path" fill="#FFFFFF" fill-rule="nonzero"></path>
                    <rect id="Rectangle" fill="#DBB497" fill-rule="nonzero" x="48.2084505" y="18.98832" width="35.5026847" height="3.5496"></rect>
                    <rect id="Rectangle" fill="#DBB497" fill-rule="nonzero" x="48.2084505" y="26.51728" width="35.5026847" height="1.77344"></rect>
                    <rect id="Rectangle" fill="#DBB497" fill-rule="nonzero" x="48.2084505" y="30.88832" width="35.5026847" height="1.77344"></rect>
                    <rect id="Rectangle" fill="#DBB497" fill-rule="nonzero" x="48.2084505" y="35.25936" width="35.5026847" height="1.77344"></rect>
                    <rect id="Rectangle" fill="#DBB497" fill-rule="nonzero" x="48.2084505" y="39.6304" width="35.5026847" height="1.77344"></rect>
                    <rect id="Rectangle" fill="#DBB497" fill-rule="nonzero" x="48.2084505" y="43.99872" width="35.5026847" height="1.77344"></rect>
                    <rect id="Rectangle" fill="#DBB497" fill-rule="nonzero" x="48.2084505" y="48.36976" width="35.5026847" height="1.77344"></rect>
                    <rect id="Rectangle" fill="#DBB497" fill-rule="nonzero" x="48.2084505" y="52.7408" width="35.5026847" height="1.77344"></rect>
                    <rect id="Rectangle" fill="#DBB497" fill-rule="nonzero" x="48.2084505" y="57.11184" width="35.5026847" height="1.77344"></rect>
                    <rect id="Rectangle" fill="#DBB497" fill-rule="nonzero" x="48.2084505" y="61.48016" width="35.5026847" height="1.77344"></rect>
                    <rect id="Rectangle" fill="#DBB497" fill-rule="nonzero" x="48.2084505" y="65.8512" width="35.5026847" height="1.77344"></rect>
                    <rect id="Rectangle" fill="#DBB497" fill-rule="nonzero" x="48.2084505" y="70.22224" width="35.5026847" height="1.77344"></rect>
                    <rect id="Rectangle" fill="#DBB497" fill-rule="nonzero" x="48.2084505" y="74.59328" width="22.815964" height="1.77344"></rect>
                    <rect id="Rectangle" fill="#DBB497" fill-rule="nonzero" x="48.2084505" y="78.9616" width="13.7695676" height="1.77344"></rect>
                    <path d="M70.4938739,12.6072 L59.1593514,12.6072 C58.8714453,12.5986872 58.6400466,12.3673498 58.6315315,12.07952 L58.6315315,12.07952 C58.6400466,11.7916902 58.8714453,11.5603528 59.1593514,11.55184 L70.4938739,11.55184 C70.7853807,11.55184 71.0216937,11.7880904 71.0216937,12.07952 L71.0216937,12.07952 C71.0216937,12.3709496 70.7853807,12.6072 70.4938739,12.6072 L70.4938739,12.6072 Z" id="Path" fill="#FFFFFF" fill-rule="nonzero"></path>
                    <path d="M73.7315315,12.08496 C73.7315315,12.3854029 73.4879099,12.62896 73.1873874,12.62896 C72.8868649,12.62896 72.6432432,12.3854029 72.6432432,12.08496 C72.6432432,11.7845171 72.8868649,11.54096 73.1873874,11.54096 C73.4879099,11.54096 73.7315315,11.7845171 73.7315315,12.08496 Z" id="Path" fill="#FFFFFF" fill-rule="nonzero"></path>
                    <ellipse id="Oval" fill="#FFFFFF" fill-rule="nonzero" cx="66.1543243" cy="89.02288" rx="2.62277477" ry="2.62208"></ellipse>
                    <g id="Group" style="mix-blend-mode: soft-light;" transform="translate(44.619820, 11.424000)" fill="#FFFFFF" fill-rule="nonzero">
                        <path d="M39.7687748,0.272 L0.125153153,66.53664 L0.125153153,68.98464 C0.125153153,71.3326013 2.0290562,73.236 4.37763964,73.236 L11.6990991,73.236 L42.0813874,22.44544 L42.0813874,3.40544 C42.0775771,1.96817913 41.1413198,0.699611258 39.7687748,0.272 Z" id="Path"></path>
                        <path d="M32.6241622,0.12784 C32.6241622,0.12784 30.5836216,3.0056 29.5851171,3.0056 L15.2061081,3.0056 L0.125153153,28.21184 L0.125153153,60.99872 L36.542,0.12784 L32.6241622,0.12784 Z" id="Path"></path>
                        <polygon id="Path" points="25.2809369 73.22512 42.0813874 45.14112 42.0813874 27.98608 15.0183784 73.22512"></polygon>
                    </g>
                    <path d="M89.7837838,0.1496 C89.9417436,0.731309834 90.0491577,1.32557104 90.1048288,1.92576 C90.1636332,2.51597847 90.192691,3.10878146 90.1918919,3.70192 C90.1941064,4.29599635 90.1650451,4.88977756 90.1048288,5.4808 C90.0504814,6.0811688 89.9430466,6.67554485 89.7837838,7.25696 C89.6271389,6.67495432 89.5197452,6.08080603 89.4627387,5.4808 C89.4038799,4.88967609 89.3748221,4.29596484 89.3756757,3.70192 C89.3756757,3.11168 89.4056036,2.51872 89.4654595,1.92576 C89.521523,1.32582513 89.6280071,0.731673704 89.7837838,0.1496 L89.7837838,0.1496 Z" id="Path" fill="#BC2C3D" fill-rule="nonzero"></path>
                    <path d="M99.2056396,9.75936 C98.6237032,9.91639912 98.0292823,10.0228751 97.429009,10.0776 C96.2466137,10.1954746 95.0554223,10.1954746 93.873027,10.0776 C93.272679,10.0219436 92.6782604,9.91455798 92.0963964,9.75664 C92.6756768,9.60010098 93.2673438,9.49362913 93.8648649,9.4384 C95.0473502,9.32234932 96.2383615,9.32234932 97.4208468,9.4384 C98.0239418,9.4935903 98.6211112,9.60097951 99.2056396,9.75936 L99.2056396,9.75936 Z" id="Path" fill="#BC2C3D" fill-rule="nonzero"></path>
                    <path d="M96.055045,3.3864 C95.7545605,3.90837374 95.4095619,4.40343848 95.0238919,4.86608 C94.6488209,5.32614463 94.2501542,5.76646842 93.8294955,6.18528 C93.4094912,6.60669005 92.9671929,7.00528859 92.5045045,7.37936 C92.0403245,7.76433511 91.5442775,8.10920116 91.0217117,8.41024 C91.3202781,7.88599546 91.6644166,7.38903818 92.0501441,6.92512 C92.4274174,6.46634667 92.8255495,6.02752 93.2445405,5.60864 C93.6635315,5.18976 94.1033814,4.79173333 94.5640901,4.41456 C95.0302499,4.02918265 95.5291229,3.6851607 96.055045,3.3864 Z" id="Path" fill="#BC2C3D" fill-rule="nonzero"></path>
                    <path d="M97.2712072,16.29008 C96.7482279,15.9896934 96.2521267,15.6447897 95.7884144,15.2592 C94.8699816,14.5069307 94.0279312,13.6660144 93.2744685,12.74864 C92.8893816,12.2852004 92.5452782,11.7892039 92.246036,11.26624 C92.7691385,11.5654029 93.2652664,11.9094151 93.7288288,12.2944 C94.1875366,12.6700828 94.6270358,13.0686139 95.0456577,13.48848 C95.4663164,13.9072916 95.8649831,14.3476154 96.2400541,14.80768 C96.6251312,15.271737 96.9700886,15.7676526 97.2712072,16.29008 L97.2712072,16.29008 Z" id="Path" fill="#BC2C3D" fill-rule="nonzero"></path>
                    <path d="M88.1731171,7.1944 C87.6505513,6.89336116 87.1545043,6.54849511 86.6903243,6.16352 C86.2301378,5.7885484 85.7896973,5.38998728 85.3707748,4.96944 C84.9494769,4.55219033 84.5507767,4.11273745 84.1763784,3.65296 C83.7915521,3.19125173 83.4474551,2.69708457 83.1479459,2.176 C83.6710484,2.47516286 84.1671763,2.81917514 84.6307387,3.20416 C85.0914474,3.58133333 85.5303904,3.97936 85.9475676,4.39824 C86.3674252,4.81591569 86.7660584,5.2543868 87.141964,5.712 C87.5270411,6.17605704 87.8719985,6.67197261 88.1731171,7.1944 Z" id="Path" fill="#BC2C3D" fill-rule="nonzero"></path>
                    <path d="M44.6198198,50.43152 C44.6198198,50.43152 48.4097838,64.2328 65.5693694,62.58448 C65.5693694,62.58448 56.9773333,61.13472 56.9773333,50.43152 L44.6198198,50.43152 Z" id="Path" stroke="#BF3041" stroke-width="0.8" fill="#DC3B50" fill-rule="nonzero"></path>
                    <rect id="Rectangle" stroke="#BF3041" stroke-width="0.8" fill="#DC3B50" fill-rule="nonzero" x="27.0684505" y="29.34064" width="41.2760541" height="26.0032" rx="13.0016"></rect>
                    <rect id="Rectangle" fill="#211D1E" fill-rule="nonzero" x="37.496973" y="37.42176" width="20.419009" height="14.67168"></rect>
                    <rect id="Rectangle" fill="#FFFFFF" fill-rule="nonzero" x="40.1197477" y="32.58832" width="15.1707387" height="18.79792"></rect>
                    <rect id="Rectangle" fill="#D0D0D0" fill-rule="nonzero" x="41.8093153" y="34.6256" width="11.7916036" height="1.10704"></rect>
                    <rect id="Rectangle" fill="#D0D0D0" fill-rule="nonzero" x="41.8093153" y="36.8968" width="11.7916036" height="1.10704"></rect>
                    <rect id="Rectangle" fill="#D0D0D0" fill-rule="nonzero" x="41.8093153" y="39.16528" width="11.7916036" height="1.10704"></rect>
                    <rect id="Rectangle" fill="#D0D0D0" fill-rule="nonzero" x="41.8093153" y="41.43376" width="11.7916036" height="1.10704"></rect>
                    <rect id="Rectangle" fill="#D0D0D0" fill-rule="nonzero" x="41.8093153" y="43.70496" width="11.7916036" height="1.10704"></rect>
                    <rect id="Rectangle" fill="#D0D0D0" fill-rule="nonzero" x="41.8093153" y="45.97344" width="11.7916036" height="1.10704"></rect>
                    <rect id="Rectangle" fill="#D0D0D0" fill-rule="nonzero" x="41.8093153" y="48.24192" width="11.7916036" height="1.10704"></rect>
                    <polygon id="Path" fill="#453E40" fill-rule="nonzero" points="42.0596216 44.29248 37.496973 37.42176 37.496973 52.09344 57.915982 52.09344 57.915982 37.42176 53.3696577 44.29248"></polygon>
                    <polygon id="Path" fill="#453E40" fill-rule="nonzero" points="57.915982 52.09344 37.496973 52.09344 42.0596216 44.29248 53.3506126 44.29248"></polygon>
                    <path d="M37.496973,52.09344 C37.8506667,51.42704 38.2125225,50.76608 38.5852613,50.10784 C38.958,49.4496 39.3062523,48.7832 39.6735495,48.12768 L40.7808829,46.1584 L41.8936577,44.19184 L41.9480721,44.09664 L42.0650631,44.09664 C43.9478018,44.07488 45.8278198,44.07216 47.7105586,44.06672 C49.5932973,44.06128 51.4733153,44.06672 53.3560541,44.09664 L53.473045,44.09664 L53.5274595,44.19456 C54.2756577,45.50288 55.0075315,46.81936 55.7475676,48.1304 C56.1203063,48.78592 56.4794414,49.4496 56.8358559,50.11056 C57.1922703,50.77152 57.5622883,51.42976 57.9241441,52.09616 C57.516036,51.4624 57.1079279,50.8232 56.7188649,50.19216 C56.3298018,49.56112 55.918973,48.91648 55.5299099,48.27184 C54.7490631,46.98256 53.9600541,45.69872 53.1873694,44.40672 L53.3587748,44.50464 C51.476036,44.5264 49.596018,44.52912 47.7132793,44.53456 C45.8305405,44.54 43.9505225,44.53456 42.0677838,44.50464 L42.2391892,44.40672 L41.0692793,46.34064 L39.8966486,48.26912 C39.5075856,48.91648 39.1049189,49.55296 38.7076937,50.19216 C38.3104685,50.83136 37.9023604,51.45968 37.496973,52.09344 Z" id="Path" fill="#1E1B1C" fill-rule="nonzero"></path>
                    <path d="M64.9844144,38.03376 C64.6851723,38.5567239 64.3410688,39.0527204 63.955982,39.51616 C63.5787087,39.9749333 63.1805766,40.4146667 62.7615856,40.83536 C62.3425946,41.2560533 61.9036517,41.65408 61.4447568,42.02944 C60.9807157,42.4150654 60.4836267,42.7591127 59.9592432,43.0576 C60.2603618,42.5351726 60.6053193,42.039257 60.9903964,41.5752 C61.3647947,41.1154225 61.763495,40.6759697 62.1847928,40.25872 C62.6037153,39.8381727 63.0441558,39.4396116 63.5043423,39.06464 C63.9671064,38.6790722 64.4623024,38.3341649 64.9844144,38.03376 Z" id="Path" fill="#FFFFFF" fill-rule="nonzero"></path>
                    <path d="M64.8456577,51.48144 C64.3230918,51.1804012 63.8270449,50.8355351 63.3628649,50.45056 C62.4444321,49.6982907 61.6023817,48.8573744 60.8489189,47.94 C60.4638321,47.4765604 60.1197286,46.9805639 59.8204865,46.4576 C60.3435889,46.7567629 60.8397169,47.1007751 61.3032793,47.48576 C61.7621742,47.8629333 62.2011171,48.26096 62.6201081,48.67984 C63.0401057,49.0992812 63.4387412,49.5395705 63.8145045,49.99904 C64.1995816,50.463097 64.5445391,50.9590126 64.8456577,51.48144 Z" id="Path" fill="#FFFFFF" fill-rule="nonzero"></path>
                    <path d="M67.1256216,44.74672 C66.5438117,44.9048772 65.9493721,45.0122666 65.348991,45.06768 C64.7586202,45.1265239 64.1656574,45.1555741 63.5723604,45.15472 C62.9790318,45.156934 62.3859989,45.1278804 61.7957297,45.06768 C61.1951692,45.0135885 60.6006144,44.9061782 60.0190991,44.74672 C60.600909,44.5885628 61.1953486,44.4811734 61.7957297,44.42576 C62.3861005,44.3669161 62.9790633,44.3378659 63.5723604,44.33872 C64.1654775,44.33872 64.7558739,44.36864 65.348991,44.42848 C65.9491162,44.4842978 66.5434444,44.5907572 67.1256216,44.74672 Z" id="Path" fill="#FFFFFF" fill-rule="nonzero"></path>
                    <path d="M30.4258198,38.03376 C30.9483856,38.3347988 31.4444326,38.6796649 31.9086126,39.06464 C32.3673204,39.4403228 32.8068196,39.8388539 33.2254414,40.25872 C33.6467393,40.6759697 34.0454396,41.1154225 34.4198378,41.5752 C34.8058004,42.0385834 35.1508123,42.5345773 35.450991,43.0576 C34.9270601,42.7597514 34.4308197,42.4156611 33.9681982,42.02944 C33.5086696,41.6537034 33.0682673,41.2551768 32.6486486,40.83536 C32.2296577,40.41648 31.8315255,39.9767467 31.4542523,39.51616 C31.0691654,39.0527204 30.7250619,38.5567239 30.4258198,38.03376 L30.4258198,38.03376 Z" id="Path" fill="#FFFFFF" fill-rule="nonzero"></path>
                    <path d="M30.5672973,51.48144 C30.8665394,50.9584761 31.2106429,50.4624796 31.5957297,49.99904 C31.9748168,49.5402667 32.3729489,49.1005333 32.7901261,48.67984 C33.2073033,48.2591467 33.6462462,47.86112 34.106955,47.48576 C34.5709961,47.1001346 35.068085,46.7560873 35.5924685,46.4576 C35.2913499,46.9800274 34.9463924,47.475943 34.5613153,47.94 C33.8078526,48.8573744 32.9658022,49.6982907 32.0473694,50.45056 C31.5846053,50.8361278 31.0894093,51.1810351 30.5672973,51.48144 Z" id="Path" fill="#FFFFFF" fill-rule="nonzero"></path>
                    <path d="M28.2954955,44.74672 C28.8776727,44.5907572 29.4720009,44.4842978 30.0721261,44.42848 C30.6652432,44.36864 31.2583604,44.34144 31.8487568,44.33872 C32.4420553,44.3378012 33.0350214,44.3668515 33.6253874,44.42576 C34.2258001,44.4809417 34.8202596,44.5883347 35.402018,44.74672 C34.8205572,44.9064181 34.2259808,45.0138322 33.6253874,45.06768 C33.0296588,45.1276142 32.4311581,45.1557608 31.8324324,45.152 C31.2391367,45.1527989 30.6461767,45.1237488 30.0558018,45.06496 C29.460995,45.0095077 28.8720579,44.9030356 28.2954955,44.74672 L28.2954955,44.74672 Z" id="Path" fill="#FFFFFF" fill-rule="nonzero"></path>
                    <ellipse id="Oval" stroke="#BF3041" stroke-width="0.8" fill="#FFFFFF" fill-rule="nonzero" transform="translate(28.686698, 31.555058) rotate(-22.500000) translate(-28.686698, -31.555058) " cx="28.6866976" cy="31.5550576" rx="5.57453852" ry="5.57349429"></ellipse>
                    <path d="M29.2667928,28.3859016 L28.641027,28.3859016 C28.5579917,28.3849995 28.4826804,28.4344766 28.4505766,28.51104 C28.3118198,28.85104 27.8112072,29.08224 27.1174234,29.1312 C27.0100722,29.1383705 26.9267336,29.2276382 26.9269725,29.3352 L26.9269725,29.9608 C26.9269725,30.0734661 27.0183311,30.1648 27.131027,30.1648 L28.1649009,30.1648 L28.1649009,34.5168 C28.1663662,34.6288537 28.2568716,34.7193351 28.368955,34.7208 L29.2667928,34.7208 C29.3794887,34.7208 29.4708468,34.6294661 29.4708468,34.5168 L29.4708468,28.5872 C29.4708468,28.5333426 29.4492669,28.4817297 29.410919,28.4439032 C29.3725712,28.4060767 29.3206595,28.3851922 29.2667928,28.3859016 Z" id="Path" fill="#2C2627" fill-rule="nonzero"></path>
                    <polygon id="Path" fill="#D9E1E4" fill-rule="nonzero" points="22.4024144 71.55232 38.5172432 65.348 28.2818919 80.20736"></polygon>
                    <polygon id="Path" fill="#A1AAAD" fill-rule="nonzero" points="18.7566486 75.63504 22.4024144 71.55232 23.6321802 73.36384"></polygon>
                    <polygon id="Path" fill="#CBCFD1" fill-rule="nonzero" points="21.4773694 69.48512 18.7566486 75.63504 22.4024144 71.55232 38.5172432 65.348"></polygon>
                    <polygon id="Path" fill="#FFFFFF" fill-rule="nonzero" points="13.4757297 65.6744 21.4773694 69.48512 38.5172432 65.348"></polygon>
                    <path d="M18.0057297,75.9968 C16.2780721,77.47648 14.4687928,79.0024 12.2704505,79.57632 C10.0721081,80.15024 7.37315315,79.46752 6.33927928,77.43296 C5.86315315,76.4864 5.84682883,75.24064 6.54333333,74.44096 C7.23983784,73.64128 9.11713514,72.78176 9.2967027,74.45728 C7.50646847,77.23712 2.16569369,74.02208 0.231261261,71.19328" id="Path" stroke="#CBCFD1" stroke-width="0.8"></path>
                    <polygon id="Path" fill="#D9E1E4" fill-rule="nonzero" points="104.859297 50.592 93.7179459 46.30256 100.794541 56.576"></polygon>
                    <polygon id="Path" fill="#A1AAAD" fill-rule="nonzero" points="107.381405 53.41536 104.859297 50.592 104.007712 51.84592"></polygon>
                    <polygon id="Path" fill="#CBCFD1" fill-rule="nonzero" points="105.498667 49.164 107.381405 53.41536 104.859297 50.592 93.7179459 46.30256"></polygon>
                    <polygon id="Path" fill="#FFFFFF" fill-rule="nonzero" points="111.032613 46.52832 105.498667 49.164 93.7179459 46.30256"></polygon>
                    <path d="M107.876577,53.70368 C108.549495,54.2368439 109.29411,54.6726902 110.088523,54.9984 C110.852843,55.343752 111.685035,55.5129351 112.523568,55.49344 C112.925603,55.4694132 113.319184,55.367811 113.682595,55.19424 C114.036056,55.0219589 114.345123,54.7706756 114.585874,54.45984 C114.819941,54.1639425 114.952538,53.8005894 114.964054,53.42352 C114.998021,53.0980476 114.786689,52.7973858 114.468883,52.71904 C114.127252,52.6539226 113.776245,52.7702077 113.541117,53.0264 C113.267244,53.2953808 113.078089,53.638605 112.996973,54.01376 C112.835097,54.8013702 113.021581,55.620491 113.508468,56.26048 C114.023832,56.9056423 114.782958,57.3092212 115.606144,57.37568 C116.453369,57.4627007 117.307087,57.2910541 118.054793,56.88336 C117.33182,57.3963946 116.462569,57.662538 115.576216,57.64224 C114.649548,57.63231 113.771718,57.225208 113.165658,56.52432 C112.558632,55.7956623 112.308261,54.8343311 112.482757,53.90224 C112.577923,53.4256914 112.812807,52.9882415 113.157495,52.6456 C113.337309,52.464685 113.554633,52.3254112 113.794144,52.2376 C114.047804,52.1448787 114.323141,52.128798 114.585874,52.19136 C114.863216,52.2566199 115.105952,52.4235783 115.266054,52.6592 C115.412584,52.8858538 115.488351,53.1509665 115.483712,53.4208 C115.471314,53.9173692 115.294266,54.3957525 114.980378,54.7808 C114.3765,55.5090196 113.477895,55.9282578 112.53173,55.9232 C111.635561,55.907904 110.756337,55.6764925 109.968811,55.24864 C109.194283,54.8471565 108.488148,54.3257277 107.876577,53.70368 Z" id="Path" fill="#D9E1E4" fill-rule="nonzero"></path>
                </g>
                <g id="Additional-Elements">
                    <circle id="Oval-11" fill="#DBB497" opacity="0.162430037" cx="140" cy="4" r="2.4"></circle>
                    <circle id="Oval-11" fill="#8AC341" cx="83.6" cy="15.6" r="1.2"></circle>
                    <circle id="Oval-11" fill="#DBB497" opacity="0.40500726" cx="12" cy="35.2" r="2.4"></circle>
                    <circle id="Oval-11" fill="#BC2C3D" opacity="0.149778451" cx="5.2" cy="22" r="1.2"></circle>
                    <g id="Group-23" opacity="0.364272388" transform="translate(63.154480, 5.822603) rotate(-120.000000) translate(-63.154480, -5.822603) translate(59.154480, 1.322603)" stroke="#DBB497" stroke-linecap="round" stroke-width="5.6">
                        <line x1="8.66905251e-13" y1="3.81296865" x2="7.27024336" y2="3.81296865" id="Line"></line>
                        <g id="Group-22" transform="translate(3.203313, 4.178615) rotate(-270.000000) translate(-3.203313, -4.178615) translate(-0.796687, 2.678615)">
                            <line x1="-1.07954239e-13" y1="1.06763122" x2="7.27024336" y2="1.06763122" id="Line"></line>
                        </g>
                    </g>
                    <g id="Group-23" transform="translate(145.519514, 62.727934) rotate(-330.000000) translate(-145.519514, -62.727934) translate(141.019514, 57.727934)" stroke="#FFDBE0" stroke-linecap="round" stroke-width="4.8">
                        <line x1="6.69970549e-13" y1="4.05104747" x2="8.08101583" y2="4.05104747" id="Line"></line>
                        <g id="Group-22" transform="translate(3.553528, 4.511029) rotate(-270.000000) translate(-3.553528, -4.511029) translate(-0.946472, 3.011029)">
                            <line x1="4.24620006e-13" y1="1.01276187" x2="8.08101583" y2="1.01276187" id="Line"></line>
                        </g>
                    </g>
                    <circle id="Oval-11" fill="#DBB497" opacity="0.223822295" cx="41.6" cy="110.4" r="2.4"></circle>
                    <circle id="Oval" stroke="#DC3B50" stroke-width="2.4" cx="36" cy="29.6" r="2.4"></circle>
                    <circle id="Oval" stroke="#DC3B50" stroke-width="3.2" cx="136.8" cy="28" r="3.2"></circle>
                    <circle id="Oval" fill="#DC3B50" cx="129.2" cy="10" r="2"></circle>
                    <circle id="Oval" fill="#DC3B50" cx="28.4" cy="39.6" r="2"></circle>
                    <circle id="Oval" stroke="#DC3B50" stroke-width="2.4" cx="21.6" cy="103.2" r="2.4"></circle>
                    <circle id="Oval" fill="#DC3B50" cx="12.4" cy="93.2" r="2"></circle>
                    <circle id="Oval" fill="#DC3B50" cx="0.8" cy="56.8" r="1"></circle>
                    <circle id="Oval" stroke="#DC3B50" stroke-width="2.4" cx="150.4" cy="88" r="2.4"></circle>
                    <circle id="Oval" fill="#DC3B50" cx="157.2" cy="90" r="2"></circle>
                </g>
            </g>
        </g>
    </g>
</svg>